Date 	Opponent 	Location 	Result 	Attend
08/09/2013 (Fri)	@ Carolina 	Bank of America Stadium (Charlotte NC)	L 24-17	70700
08/15/2013 (Thu)	San Diego 	Soldier Field (Chicago IL)	W 33-28	51051
08/23/2013 (Fri)	@ Oakland 	O.co Coliseum (Oakland CA)	W 34-26	41946
08/29/2013 (Thu)	Cleveland 	Soldier Field (Chicago IL)	L 18-16	59868